%YAML 1.1
%TAG !u! tag:unity3d.com,2011:
--- !u!21 &2100000
Material:
  serializedVersion: 6
  m_ObjectHideFlags: 0
  m_CorrespondingSourceObject: {fileID: 0}
  m_PrefabInternal: {fileID: 0}
  m_Name: LinearGradient#2
  m_Shader: {fileID: 4800000, guid: 41d7019ca116ac8418408e78394464ea, type: 3}
  m_ShaderKeywords: 
  m_LightmapFlags: 4
  m_EnableInstancingVariants: 0
  m_DoubleSidedGI: 0
  m_CustomRenderQueue: -1
  stringTagMap: {}
  disabledShaderPasses: []
  m_SavedProperties:
    serializedVersion: 3
    m_TexEnvs:
    - _MainTex:
        m_Texture: {fileID: 0}
        m_Scale: {x: 1, y: 1}
        m_Offset: {x: 0, y: 0}
    m_Floats: []
    m_Colors:
    - _BottomColor: {r: 0.17254902, g: 0.24313726, b: 0.3137255, a: 1}
    - _Color: {r: 1, g: 1, b: 1, a: 1}
    - _TopColor: {r: 0.16078432, g: 0.49803922, b: 0.72156864, a: 1}
